%YAML 1.1
%TAG !u! tag:unity3d.com,2011:
--- !u!1001 &2501581342320789932
PrefabInstance:
  m_ObjectHideFlags: 0
  serializedVersion: 2
  m_Modification:
    serializedVersion: 3
    m_TransformParent: {fileID: 0}
    m_Modifications:
    - target: {fileID: 2147034699015101800, guid: b86faad029d37d0439a7cc8c94196192,
        type: 3}
      propertyPath: m_Enabled
      value: 0
      objectReference: {fileID: 0}
    - target: {fileID: 4303570159534599841, guid: b86faad029d37d0439a7cc8c94196192,
        type: 3}
      propertyPath: m_LocalScale.x
      value: 10
      objectReference: {fileID: 0}
    - target: {fileID: 4303570159534599841, guid: b86faad029d37d0439a7cc8c94196192,
        type: 3}
      propertyPath: m_LocalScale.y
      value: 10
      objectReference: {fileID: 0}
    - target: {fileID: 4303570159534599841, guid: b86faad029d37d0439a7cc8c94196192,
        type: 3}
      propertyPath: m_LocalScale.z
      value: 10
      objectReference: {fileID: 0}
    - target: {fileID: 4303570159534599841, guid: b86faad029d37d0439a7cc8c94196192,
        type: 3}
      propertyPath: m_LocalPosition.x
      value: 0
      objectReference: {fileID: 0}
    - target: {fileID: 4303570159534599841, guid: b86faad029d37d0439a7cc8c94196192,
        type: 3}
      propertyPath: m_LocalPosition.y
      value: 0
      objectReference: {fileID: 0}
    - target: {fileID: 4303570159534599841, guid: b86faad029d37d0439a7cc8c94196192,
        type: 3}
      propertyPath: m_LocalPosition.z
      value: 0
      objectReference: {fileID: 0}
    - target: {fileID: 4303570159534599841, guid: b86faad029d37d0439a7cc8c94196192,
        type: 3}
      propertyPath: m_LocalRotation.w
      value: 1
      objectReference: {fileID: 0}
    - target: {fileID: 4303570159534599841, guid: b86faad029d37d0439a7cc8c94196192,
        type: 3}
      propertyPath: m_LocalRotation.x
      value: 0
      objectReference: {fileID: 0}
    - target: {fileID: 4303570159534599841, guid: b86faad029d37d0439a7cc8c94196192,
        type: 3}
      propertyPath: m_LocalRotation.y
      value: 0
      objectReference: {fileID: 0}
    - target: {fileID: 4303570159534599841, guid: b86faad029d37d0439a7cc8c94196192,
        type: 3}
      propertyPath: m_LocalRotation.z
      value: 0
      objectReference: {fileID: 0}
    - target: {fileID: 4303570159534599841, guid: b86faad029d37d0439a7cc8c94196192,
        type: 3}
      propertyPath: m_LocalEulerAnglesHint.x
      value: 0
      objectReference: {fileID: 0}
    - target: {fileID: 4303570159534599841, guid: b86faad029d37d0439a7cc8c94196192,
        type: 3}
      propertyPath: m_LocalEulerAnglesHint.y
      value: 0
      objectReference: {fileID: 0}
    - target: {fileID: 4303570159534599841, guid: b86faad029d37d0439a7cc8c94196192,
        type: 3}
      propertyPath: m_LocalEulerAnglesHint.z
      value: 0
      objectReference: {fileID: 0}
    - target: {fileID: 4370377457973928034, guid: b86faad029d37d0439a7cc8c94196192,
        type: 3}
      propertyPath: m_Mesh
      value: 
      objectReference: {fileID: -8089699231438940418, guid: ec5e513ac41722fefb71b7437a2059f2,
        type: 3}
    - target: {fileID: 8507697358633874217, guid: b86faad029d37d0439a7cc8c94196192,
        type: 3}
      propertyPath: m_Name
      value: PaperBall
      objectReference: {fileID: 0}
    - target: {fileID: 9075616329339214606, guid: b86faad029d37d0439a7cc8c94196192,
        type: 3}
      propertyPath: m_Materials.Array.data[0]
      value: 
      objectReference: {fileID: 2100000, guid: 7e610ce4667e4ff4d866631506c295a9, type: 2}
    m_RemovedComponents:
    - {fileID: 2147034699015101800, guid: b86faad029d37d0439a7cc8c94196192, type: 3}
    m_RemovedGameObjects: []
    m_AddedGameObjects: []
    m_AddedComponents:
    - targetCorrespondingSourceObject: {fileID: 8507697358633874217, guid: b86faad029d37d0439a7cc8c94196192,
        type: 3}
      insertIndex: -1
      addedObject: {fileID: 2187491360277027051}
  m_SourcePrefab: {fileID: 100100000, guid: b86faad029d37d0439a7cc8c94196192, type: 3}
--- !u!1 &6099579607632067205 stripped
GameObject:
  m_CorrespondingSourceObject: {fileID: 8507697358633874217, guid: b86faad029d37d0439a7cc8c94196192,
    type: 3}
  m_PrefabInstance: {fileID: 2501581342320789932}
  m_PrefabAsset: {fileID: 0}
--- !u!135 &2187491360277027051
SphereCollider:
  m_ObjectHideFlags: 0
  m_CorrespondingSourceObject: {fileID: 0}
  m_PrefabInstance: {fileID: 0}
  m_PrefabAsset: {fileID: 0}
  m_GameObject: {fileID: 6099579607632067205}
  m_Material: {fileID: 0}
  m_IncludeLayers:
    serializedVersion: 2
    m_Bits: 0
  m_ExcludeLayers:
    serializedVersion: 2
    m_Bits: 0
  m_LayerOverridePriority: 0
  m_IsTrigger: 0
  m_ProvidesContacts: 0
  m_Enabled: 1
  serializedVersion: 3
  m_Radius: 0.006
  m_Center: {x: 0, y: 0, z: 0}
